<?xml version="1.0" encoding="UTF-8" standalone="no"?>
<!-- Created with Inkscape (http://www.inkscape.org/) -->

<svg
   xmlns:dc="http://purl.org/dc/elements/1.1/"
   xmlns:cc="http://creativecommons.org/ns#"
   xmlns:rdf="http://www.w3.org/1999/02/22-rdf-syntax-ns#"
   xmlns:svg="http://www.w3.org/2000/svg"
   xmlns="http://www.w3.org/2000/svg"
   xmlns:sodipodi="http://sodipodi.sourceforge.net/DTD/sodipodi-0.dtd"
   xmlns:inkscape="http://www.inkscape.org/namespaces/inkscape"
   width="99.999992mm"
   height="65.382484mm"
   viewBox="0 0 99.999992 65.382484"
   version="1.1"
   id="svg8"
   inkscape:version="0.92.3 (2405546, 2018-03-11)"
   sodipodi:docname="player.svg">
  <defs
     id="defs2">
    <inkscape:path-effect
       effect="roughen"
       id="path-effect4604"
       is_visible="true"
       method="segments"
       max_segment_size="10"
       segments="2"
       displace_x="2;1"
       displace_y="2;1"
       global_randomize="1;1"
       handles="along"
       shift_nodes="false"
       fixed_displacement="true"
       spray_tool_friendly="true" />
  </defs>
  <sodipodi:namedview
     id="base"
     pagecolor="#ffffff"
     bordercolor="#666666"
     borderopacity="1.0"
     inkscape:pageopacity="0.0"
     inkscape:pageshadow="2"
     inkscape:zoom="2.56"
     inkscape:cx="196.50395"
     inkscape:cy="161.07562"
     inkscape:document-units="mm"
     inkscape:current-layer="layer1"
     showgrid="false"
     inkscape:window-width="1920"
     inkscape:window-height="1057"
     inkscape:window-x="-8"
     inkscape:window-y="-8"
     inkscape:window-maximized="1"
     fit-margin-top="0"
     fit-margin-left="0"
     fit-margin-right="0"
     fit-margin-bottom="0"
     inkscape:pagecheckerboard="true" />
  <metadata
     id="metadata5">
    <rdf:RDF>
      <cc:Work
         rdf:about="">
        <dc:format>image/svg+xml</dc:format>
        <dc:type
           rdf:resource="http://purl.org/dc/dcmitype/StillImage" />
        <dc:title></dc:title>
      </cc:Work>
    </rdf:RDF>
  </metadata>
  <g
     inkscape:label="Layer 1"
     inkscape:groupmode="layer"
     id="layer1"
     transform="translate(-25.041936,-94.097153)">
    <path
       style="fill:#ffffff;stroke-width:0.26756942"
       d="m 44.880534,115.13549 c -4.46522,-0.99488 -9.047783,-1.28471 -13.534893,-2.15563 -1.361918,-1.82141 -8.864236,-1.85107 -3.855224,-3.39183 3.95737,-0.74243 7.406568,-2.73984 10.964176,-4.50222 7.877149,-3.78488 16.240856,-6.348553 24.457538,-9.249828 4.182568,-1.833063 9.083053,-1.796794 13.538028,-1.028862 6.40783,0.355278 12.850706,0.849729 19.074034,2.482847 5.515767,0.502392 10.933317,-3.628298 16.368797,-1.139938 3.56258,1.632363 6.61698,4.670561 10.74169,4.788361 3.94785,1.4005 -0.69211,2.11568 -2.44974,1.69246 -6.08224,0.0166 -12.10915,1.63312 -18.19141,0.77165 -3.977694,-0.37565 -8.225073,0.008 -11.540427,2.44732 -4.124352,0.9929 -7.058088,3.78653 -10.902226,5.09856 -10.005684,3.76153 -20.788655,4.23364 -31.359221,4.12094 -1.103864,0.0127 -2.207684,0.0325 -3.311122,0.0662 z"
       id="path21"
       inkscape:connector-curvature="0" />
  </g>
</svg>
